<svg width="63" height="62" viewBox="0 0 63 62" fill="none" xmlns="http://www.w3.org/2000/svg">
<path d="M63 31C63 48.1208 49.1208 62 32 62C14.8792 62 1 48.1208 1 31C1 13.8792 14.8792 0 32 0C49.1208 0 63 13.8792 63 31ZM4.85799 31C4.85799 45.9901 17.0099 58.142 32 58.142C46.9901 58.142 59.142 45.9901 59.142 31C59.142 16.0099 46.9901 3.85799 32 3.85799C17.0099 3.85799 4.85799 16.0099 4.85799 31Z" fill="#DBD7DD"/>
<path d="M2.92899 31C1.86364 31 0.993746 31.8646 1.05999 32.9278C1.39974 38.3812 3.17614 43.6606 6.22444 48.2227C9.63076 53.3206 14.4723 57.2939 20.1368 59.6403C25.8013 61.9866 32.0344 62.6005 38.0478 61.4043C44.0612 60.2082 49.5849 57.2557 53.9203 52.9203C58.2557 48.5849 61.2082 43.0612 62.4043 37.0478C63.6005 31.0344 62.9866 24.8013 60.6403 19.1368C58.294 13.4723 54.3206 8.63077 49.2227 5.22444C44.6606 2.17615 39.3812 0.399738 33.9279 0.0599894C32.8646 -0.00625408 32 0.86364 32 1.92899V1.92899C32 2.99435 32.8648 3.85085 33.9274 3.9265C38.6171 4.26033 43.1518 5.80796 47.0793 8.43224C51.5428 11.4146 55.0216 15.6536 57.0759 20.6132C59.1303 25.5728 59.6678 31.0301 58.6205 36.2951C57.5732 41.5602 54.9882 46.3964 51.1923 50.1923C47.3964 53.9882 42.5602 56.5732 37.2951 57.6205C32.0301 58.6678 26.5728 58.1303 21.6132 56.0759C16.6536 54.0216 12.4146 50.5428 9.43224 46.0793C6.80796 42.1518 5.26033 37.6171 4.9265 32.9274C4.85085 31.8648 3.99435 31 2.92899 31V31Z" fill="#85323D"/>
<path d="M27.3026 35.1293C29.343 35.1431 30.7141 33.7397 30.7095 31.87C30.7141 30.0835 29.44 28.7908 27.7827 28.7908C26.767 28.7908 25.8714 29.2848 25.419 30.0973H25.3544C25.359 28.0799 26.0884 26.8704 27.3995 26.8704C28.212 26.8704 28.7614 27.3459 28.9368 28.0938H30.6218C30.4187 26.5426 29.1861 25.3885 27.3995 25.3885C25.1282 25.3885 23.6925 27.2812 23.6925 30.5405C23.6925 34.0075 25.4883 35.12 27.3026 35.1293ZM27.2933 33.7443C26.2823 33.7443 25.5437 32.9087 25.5391 31.9208C25.5483 30.9283 26.3146 30.0973 27.3164 30.0973C28.3182 30.0973 29.0522 30.8913 29.0476 31.907C29.0522 32.9411 28.2951 33.7443 27.2933 33.7443ZM35.7646 35.18C38.0451 35.1847 39.407 33.3842 39.407 30.282C39.407 27.1982 38.0359 25.4162 35.7646 25.4162C33.4933 25.4162 32.1268 27.1935 32.1222 30.282C32.1222 33.3796 33.484 35.18 35.7646 35.18ZM35.7646 33.7351C34.5874 33.7351 33.8487 32.5533 33.8533 30.282C33.858 28.0291 34.592 26.8427 35.7646 26.8427C36.9418 26.8427 37.6758 28.0291 37.6804 30.282C37.6804 32.5533 36.9464 33.7351 35.7646 33.7351Z" fill="black"/>
<path d="M43.6278 27.9091C43.6307 28.5852 44.0597 29.1619 44.858 29.1619C45.6534 29.1619 46.0909 28.5852 46.0881 27.9091V27.6023C46.0909 26.9205 45.6648 26.3494 44.858 26.3494C44.071 26.3494 43.6307 26.9261 43.6278 27.6023V27.9091ZM40.6705 24.5795C40.6733 25.2557 41.1023 25.8267 41.9034 25.8267C42.696 25.8267 43.1335 25.2614 43.1307 24.5795V24.2727C43.1335 23.5909 42.7074 23.0199 41.9034 23.0199C41.1193 23.0199 40.6733 23.5909 40.6705 24.2727V24.5795ZM40.9261 29H41.6392L45.6392 23.1818H44.9261L40.9261 29ZM44.3693 27.6023C44.3722 27.3011 44.5 26.9972 44.858 26.9972C45.233 26.9972 45.3438 27.3011 45.3409 27.6023V27.9091C45.3438 28.2102 45.2216 28.5085 44.858 28.5085C44.4943 28.5085 44.3722 28.2074 44.3693 27.9091V27.6023ZM41.4176 24.2727C41.4205 23.9744 41.5426 23.6676 41.9034 23.6676C42.2784 23.6676 42.3864 23.9716 42.3835 24.2727V24.5795C42.3864 24.8807 42.267 25.179 41.9034 25.179C41.5398 25.179 41.4205 24.8807 41.4176 24.5795V24.2727Z" fill="black"/>
</svg>
