<svg width="24" height="24" viewBox="0 0 24 24" fill="none" xmlns="http://www.w3.org/2000/svg">
<path d="M17.6387 15L12.2129 20.4258L6.78711 15L5 16.7871L12.2129 24L19.4258 16.7871L17.6387 15Z" fill="#EBE8ED"/>
<path d="M17.6387 9L12.2129 3.57422L6.78711 9L5 7.21289L12.2129 3.89601e-07L19.4258 7.21289L17.6387 9Z" fill="black"/>
</svg>
